…
## Use `mutate_at()` with `str_replace()`

Fortunately, I found that `dplyr::mutate_at()` can help us target column(s) of
interest (here `subject`) and leave other columns untouched.

```{r}
#| eval: false
renamed_data <- 
  data %>% 
  mutate_at("subject", str_replace, " 003", "")
renamed_data
```

    # A tibble: 100 x 5
      subject   treatment      var1   var2   var3
      <chr>     <chr>         <dbl>  <dbl>  <dbl>
    1 subject_c treatment z  0.452  0.464  0.231 
    2 subject_c treatment y  0.0412 0.165  0.350 
    3 subject_c treatment y -0.422  0.585  0.605 
    4 subject_b treatment z -2.05   0.271  0.453 
    5 subject_c treatment x  1.13   0.230  0.447 
    6 subject_b treatment x -1.46   0.691  0.413 
    7 subject_b treatment z  0.740  0.283  0.0504
    8 subject_b treatment y  1.91   0.810  0.587 
    9 subject_c treatment y -1.44   0.0939 0.433 
    10 subject_a treatment y  0.702  0.822  0.121 
    # â€¦ with 90 more rows
…
By using `dplyr::mutate_at()`, we are specifiying that `str_replace()` should
target the `subject` column only and take all instances of `003` and replace
them with nothing (`""`).

For those who prefer to not use pipes, we can accomplish the same thing by
specifying `data` as the first argument in `mutate_at()`.

```{r}
#| eval: false
renamed_data_no_pipe <- 
  mutate_at(data, "subject", str_replace, " 003", "")
renamed_data_no_pipe
```

    # A tibble: 100 x 5
       subject   treatment      var1   var2   var3
       <chr>     <chr>         <dbl>  <dbl>  <dbl>
     1 subject_c treatment z  0.452  0.464  0.231 
     2 subject_c treatment y  0.0412 0.165  0.350 
     3 subject_c treatment y -0.422  0.585  0.605 
     4 subject_b treatment z -2.05   0.271  0.453 
     5 subject_c treatment x  1.13   0.230  0.447 
     6 subject_b treatment x -1.46   0.691  0.413 
     7 subject_b treatment z  0.740  0.283  0.0504
     8 subject_b treatment y  1.91   0.810  0.587 
     9 subject_c treatment y -1.44   0.0939 0.433 
    10 subject_a treatment y  0.702  0.822  0.121 
    # â€¦ with 90 more rows
…
I should note that the `_at` component of `dplyr` has now been considered
"superseded". Instead, the authors of `dplyr` recommend we use `dplyr::across()`
to target our column(s) of interest. So we can write another version of the
above:

```{r}
#| eval: false
renamed_data_across <-
  data %>%
  mutate(across("subject", str_replace, " 003", ""))
renamed_data_across
```

    # A tibble: 100 x 5
       subject   treatment      var1   var2   var3
       <chr>     <chr>         <dbl>  <dbl>  <dbl>
     1 subject_c treatment z  0.452  0.464  0.231 
     2 subject_c treatment y  0.0412 0.165  0.350 
     3 subject_c treatment y -0.422  0.585  0.605 
     4 subject_b treatment z -2.05   0.271  0.453 
     5 subject_c treatment x  1.13   0.230  0.447 
     6 subject_b treatment x -1.46   0.691  0.413 
     7 subject_b treatment z  0.740  0.283  0.0504
     8 subject_b treatment y  1.91   0.810  0.587 
     9 subject_c treatment y -1.44   0.0939 0.433 
    10 subject_a treatment y  0.702  0.822  0.121 
    # â€¦ with 90 more rows
…
