…
You shouldn’t need to run `library(tidyverse)` or `library(ape)` after
running the chunk above, but please make sure you have `tidyverse` and
`ape` loaded or the stuff that follows won’t work.

``` r
## The imported csv file should have: 
##  - column 1 = species names; example file uses "binomial" as this column name
##  - each successive column represents one gene
##  - each row is one species
accessions_batch <- read_csv("https://github.com/vbaliga/genbank_downloadR/raw/master/Baliga_et_al_2019_SciAdv_all_genes.csv")
```

Which produces a `tibble` that contains:

    ## # A tibble: 222 x 13
    ##    binomial CYTB  COI   ND1   ND2   `12S` `16S` FGB   MUSK  ODC   RAG1 
    ##    <chr>    <chr> <chr> <chr> <chr> <chr> <chr> <chr> <chr> <chr> <chr>
    ##  1 Accipit~ AY98~ AY66~ <NA>  AY98~ <NA>  KM04~ AY98~ <NA>  <NA>  <NA> 
    ##  2 "Accipi~ EU58~ AY66~ KP85~ EU58~ KF78~ <NA>  DQ88~ <NA>  DQ88~ DQ88~
    ##  3 Accipit~ U833~ HM03~ KM87~ KX08~ <NA>  KM04~ <NA>  <NA>  <NA>  <NA> 
    ##  4 Actitis~ AY89~ EU52~ AY89~ AY89~ DQ67~ DQ67~ AY69~ <NA>  <NA>  KC96~
    ##  5 Aechmop~ AY56~ AY66~ <NA>  <NA>  DQ67~ AF33~ <NA>  <NA>  <NA>  <NA> 
    ##  6 "Aegoli~ EU07~ AY66~ <NA>  EU60~ U837~ <NA>  <NA>  <NA>  <NA>  EU34~
    ##  7 Aeronau~ EU16~ DQ43~ EU16~ EU16~ EU16~ <NA>  <NA>  <NA>  GU16~ <NA> 
    ##  8 Agaporn~ AF00~ <NA>  <NA>  EU32~ EU19~ EU19~ GQ39~ <NA>  GQ39~ GQ39~
    ##  9 Aix spo~ EU58~ AY66~ <NA>  EU58~ HM06~ <NA>  <NA>  <NA>  <NA>  <NA> 
    ## 10 Alector~ FJ43~ KT18~ <NA>  EU84~ KC74~ KC98~ DQ30~ <NA>  <NA>  <NA> 
    ## # ... with 212 more rows, and 2 more variables: TGFB2 <chr>, ZENK <chr>
…
